[gd_scene load_steps=3 format=3 uid="uid://c0mhjxums40fy"]

[ext_resource type="Script" path="res://server.gd" id="1"]
[ext_resource type="Script" path="res://random_name.gd" id="2"]

[node name="root" type="Node"]
script = ExtResource("1")

[node name="random_name" type="Node" parent="."]
script = ExtResource("2")
